 	Area	Mean	Min	Max	X	Y
1	0	241	241	241	1826	499
2	0	241	241	241	1858	499
3	0	241	241	241	1891	499
4	0	241	241	241	1920	463
5	0	241	241	241	1923	437
6	0	241	241	241	1921	410
7	0	3	3	3	1922	381
8	0	241	241	241	1884	355
9	0	241	241	241	1856	353
10	0	88	88	88	1825	354
11	0	83	83	83	623	394
12	0	218	218	218	622	422
13	0	224	224	224	622	486
14	0	224	224	224	622	510
15	0	77	77	77	623	533
16	0	218	218	218	621	556
17	0	218	218	218	621	580
18	0	3	3	3	622	611
19	0	218	218	218	623	633
20	0	1	1	1	624	655
21	0	218	218	218	631	685
22	0	218	218	218	649	702
23	0	218	218	218	665	720
24	0	1	1	1	728	730
25	0	218	218	218	801	730
26	0	1	1	1	862	729
27	0	1	1	1	930	770
28	0	218	218	218	965	807
29	0	1	1	1	994	869
30	0	1	1	1	1040	936
31	0	1	1	1	1093	989
32	0	1	1	1	1110	1093
33	0	218	218	218	1109	1185
34	0	1	1	1	1137	1237
