id	X	Y	Station
1	621.667	1006.667	Hammersmith
2	620.333	980	Goldhawk Road
3	620.333	946.667	Shepherd's Bush Market
4	624	896	Wood Lane
5	632.333	810.667	Latimer Road
6	649.667	790.667	Ladbroke Grove
7	660.333	776	Westbourne Park
8	681.667	757.333	Royal Oak
9	745.667	746.667	Paddington
10	829.667	742.667	Edgware Road
11	949.667	744	Baker Street
12	1016.333	744	Great Portland Street
13	1130	744	Euston Square
14	1196.333	742	King's Cross St. Pancras
15	1255	773.333	Farringdon
16	1285.667	804	Barbican
17	1313.667	818.667	Moorgate
18	1400.333	820	Liverpool Street
19	1503	893.333	Aldgate East
20	1521.667	873.333	Whitechapel
21	1547	846.667	Stepney Green
22	1617.667	808	Mile End
23	1675	808	Bow Road
24	1737.667	808	Bromley-by-Bow
25	1781.667	808	West Ham
26	1828.333	790.667	Plaistow
27	1849.667	768	Upton Park
28	1881.667	740	East Ham
29	1905.667	713.333	Barking
