id	X	Y	Station
1	91	262	Amersham
2	219	260.667	Chalfont & Latimer
3	299	279.333	Chorleywood
4	325.667	304.667	Rickmansworth
5	348.333	324.667	Moor Park
6	371	347.333	Northwood
7	397.667	374	Northwood Hills
8	429.667	406	Pinner
9	451	431.333	North Harrow
10	513.667	468.667	Harrow-on-the-Hill
11	589.667	468.667	Northwick Park
12	659	467.333	Preston Road
13	705.667	507.333	Wembley Park
14	847	647.333	Finchley Road
15	951	748.667	Baker Street
16	1016.333	756.667	Great Portland Street
17	1132.333	755.333	Euston Square
18	1196.333	754	King's Cross St. Pancras
19	1248.333	780.667	Farringdon
20	1277.667	814	Barbican
21	1313.667	832.667	Moorgate
22	1403	831.333	Liverpool Street
23	1444.333	907.333	Aldgate
