id	X	Y	Station
1	102.667	1285.333	Heathrow Terminal 5
2	160	1228	"Heathrow Terminals 1, 2, 3"
3	193.333	1194.667	Hatton Cross
4	217.333	1170.667	Hounslow West
5	236	1152	Hounslow Central
6	261.333	1128	Hounslow East
7	285.333	1105.333	Osterley
8	306.667	1081.333	Boston Manor
9	333.333	1057.333	Northfields
10	356	1032	South Ealing
11	389.333	1021.333	Acton Town
