id	X	Y	Station
1	1104.667	1379.333	Brixton
2	1050	1324.667	Stockwell
3	963.333	1235.333	Vauxhall
4	943.333	1140.667	Pimlico
5	944.667	1035.333	Victoria
6	944.667	935.333	Green Park
7	994	868.667	Oxford Circus
8	1091.333	770	Warren Street
9	1143.333	719.333	Euston
10	1195.333	708.667	King's Cross St. Pancras
11	1382	598	Highbury & Islington
12	1439.333	512.667	Finsbury Park
13	1510	491.333	Seven Sisters
14	1558	491.333	Tottenham Hale
15	1598	492.667	Blackhorse Road
16	1672.667	490	Walthamstow Central
